{
	"provinces": [{
			"id": "11.00.000.000",
			"name": "ACEH",
			"createdAt": null,
			"updatedAt": "2020-09-25T12:13:11.472Z"
		},
		{
			"id": "13.00.000.000",
			"name": "SUMATERA BARAT",
			"createdAt": null,
			"updatedAt": "2020-09-25T12:13:11.493Z"
		},
		{
			"id": "12.00.000.000",
			"name": "SUMATERA UTARA",
			"createdAt": null,
			"updatedAt": "2020-09-25T12:13:11.495Z"
		},
		{
			"id": "21.00.000.000",
			"name": "KEPULAUAN RIAU",
			"createdAt": null,
			"updatedAt": "2020-09-25T12:13:11.497Z"
		},
		{
			"id": "14.00.000.000",
			"name": "RIAU",
			"createdAt": null,
			"updatedAt": "2020-09-25T12:13:11.495Z"
		},
		{
			"id": "16.00.000.000",
			"name": "SUMATERA SELATAN",
			"createdAt": null,
			"updatedAt": "2020-09-25T12:13:11.496Z"
		},
		{
			"id": "15.00.000.000",
			"name": "JAMBI",
			"createdAt": null,
			"updatedAt": "2020-09-25T12:13:11.496Z"
		},
		{
			"id": "18.00.000.000",
			"name": "LAMPUNG",
			"createdAt": null,
			"updatedAt": "2020-09-25T12:13:11.498Z"
		},
		{
			"id": "17.00.000.000",
			"name": "BENGKULU",
			"createdAt": null,
			"updatedAt": "2020-09-25T12:13:11.499Z"
		},
		{
			"id": "32.00.000.000",
			"name": "JAWA BARAT",
			"createdAt": null,
			"updatedAt": "2020-09-25T12:13:11.503Z"
		},
		{
			"id": "33.00.000.000",
			"name": "JAWA TENGAH",
			"createdAt": null,
			"updatedAt": "2020-09-25T12:13:11.504Z"
		},
		{
			"id": "19.00.000.000",
			"name": "KEPULAUAN BANGKA BELITUNG",
			"createdAt": null,
			"updatedAt": "2020-09-25T12:13:11.502Z"
		},
		{
			"id": "34.00.000.000",
			"name": "DI YOGYAKARTA",
			"createdAt": null,
			"updatedAt": "2020-09-25T12:13:11.505Z"
		},
		{
			"id": "35.00.000.000",
			"name": "JAWA TIMUR",
			"createdAt": null,
			"updatedAt": "2020-09-25T12:13:11.506Z"
		},
		{
			"id": "36.00.000.000",
			"name": "BANTEN",
			"createdAt": null,
			"updatedAt": "2020-09-25T12:13:11.531Z"
		},
		{
			"id": "51.00.000.000",
			"name": "BALI",
			"createdAt": null,
			"updatedAt": "2020-09-25T12:13:11.534Z"
		},
		{
			"id": "52.00.000.000",
			"name": "NUSA TENGGARA BARAT",
			"createdAt": null,
			"updatedAt": "2020-09-25T12:13:11.535Z"
		},
		{
			"id": "53.00.000.000",
			"name": "NUSA TENGGARA TIMUR",
			"createdAt": null,
			"updatedAt": "2020-09-25T12:13:11.536Z"
		},
		{
			"id": "61.00.000.000",
			"name": "KALIMANTAN BARAT",
			"createdAt": null,
			"updatedAt": "2020-09-25T12:13:11.538Z"
		},
		{
			"id": "62.00.000.000",
			"name": "KALIMANTAN TENGAH",
			"createdAt": null,
			"updatedAt": "2020-09-25T12:13:11.548Z"
		},
		{
			"id": "63.00.000.000",
			"name": "KALIMANTAN SELATAN",
			"createdAt": null,
			"updatedAt": "2020-09-25T12:13:11.539Z"
		},
		{
			"id": "65.00.000.000",
			"name": "KALIMANTAN UTARA",
			"createdAt": null,
			"updatedAt": "2020-09-25T12:13:11.550Z"
		},
		{
			"id": "64.00.000.000",
			"name": "KALIMANTAN TIMUR",
			"createdAt": null,
			"updatedAt": "2020-09-25T12:13:11.551Z"
		},
		{
			"id": "73.00.000.000",
			"name": "SULAWESI SELATAN",
			"createdAt": null,
			"updatedAt": "2020-09-25T12:13:11.551Z"
		},
		{
			"id": "71.00.000.000",
			"name": "SULAWESI UTARA",
			"createdAt": null,
			"updatedAt": "2020-09-25T12:13:11.552Z"
		},
		{
			"id": "74.00.000.000",
			"name": "SULAWESI TENGGARA",
			"createdAt": null,
			"updatedAt": "2020-09-25T12:13:11.556Z"
		},
		{
			"id": "72.00.000.000",
			"name": "SULAWESI TENGAH",
			"createdAt": null,
			"updatedAt": "2020-09-25T12:13:11.554Z"
		},
		{
			"id": "75.00.000.000",
			"name": "GORONTALO",
			"createdAt": null,
			"updatedAt": "2020-09-25T12:13:11.561Z"
		},
		{
			"id": "81.00.000.000",
			"name": "MALUKU",
			"createdAt": null,
			"updatedAt": "2020-09-25T12:13:11.564Z"
		},
		{
			"id": "76.00.000.000",
			"name": "SULAWESI BARAT",
			"createdAt": null,
			"updatedAt": "2020-09-25T12:13:11.570Z"
		},
		{
			"id": "94.00.000.000",
			"name": "PAPUA",
			"createdAt": null,
			"updatedAt": "2020-09-25T12:13:11.573Z"
		},
		{
			"id": "82.00.000.000",
			"name": "MALUKU UTARA",
			"createdAt": null,
			"updatedAt": "2020-09-25T12:13:11.572Z"
		},
		{
			"id": "91.00.000.000",
			"name": "PAPUA BARAT",
			"createdAt": null,
			"updatedAt": "2020-09-25T12:13:11.573Z"
		},
		{
			"id": "31.00.00.0000",
			"name": "DKI JAKARTA",
			"createdAt": null,
			"updatedAt": null
		}
	]
}