[
  {
    "kode": "1",
    "nama": "Terminal Langsa",
    "tipe": "A"
  },
  {
    "kode": "2",
    "nama": "Terminal Lhokseumawe",
    "tipe": "A"
  },
  {
    "kode": "3",
    "nama": "Terminal Meulaboh",
    "tipe": "A"
  },
  {
    "kode": "4",
    "nama": "Terminal Batoh",
    "tipe": "A"
  },
  {
    "kode": "5",
    "nama": "Terminal Paya Ilang",
    "tipe": "A"
  },
  {
    "kode": "6",
    "nama": "Terminal Tanjung Pinggir",
    "tipe": "A"
  },
  {
    "kode": "7",
    "nama": "Terminal Madya Tarutung",
    "tipe": "A"
  },
  {
    "kode": "8",
    "nama": "Terminal Sibolga",
    "tipe": "A"
  },
  {
    "kode": "9",
    "nama": "Terminal Padang Bulan",
    "tipe": "A"
  },
  {
    "kode": "10",
    "nama": "Terminal Amplas",
    "tipe": "A"
  },
  {
    "kode": "11",
    "nama": "Terminal Pinang Baris",
    "tipe": "A"
  },
  {
    "kode": "12",
    "nama": "Terminal Anak Air",
    "tipe": "A"
  },
  {
    "kode": "13",
    "nama": "Terminal Kiliran Jao",
    "tipe": "A"
  },
  {
    "kode": "14",
    "nama": "Terminal Bareh Solok",
    "tipe": "A"
  },
  {
    "kode": "15",
    "nama": "Terminal Simpang Aur",
    "tipe": "A"
  },
  {
    "kode": "16",
    "nama": "Terminal Jati Pariaman",
    "tipe": "A"
  },
  {
    "kode": "17",
    "nama": "Terminal Bangkinang",
    "tipe": "A"
  },
  {
    "kode": "18",
    "nama": "Terminal Bandar Raya Payung Selaki",
    "tipe": "A"
  },
  {
    "kode": "19",
    "nama": "Terminal Dumai",
    "tipe": "A"
  },
  {
    "kode": "20",
    "nama": "Terminal Gerbangsari",
    "tipe": "A"
  },
  {
    "kode": "21",
    "nama": "Terminal Alam Barajo",
    "tipe": "A"
  },
  {
    "kode": "22",
    "nama": "Terminal Muaro Bungo",
    "tipe": "A"
  },
  {
    "kode": "23",
    "nama": "Terminal Bangko",
    "tipe": "A"
  },
  {
    "kode": "24",
    "nama": "Terminal Sribulan",
    "tipe": "A"
  },
  {
    "kode": "25",
    "nama": "Terminal Alang-Alang Lebar",
    "tipe": "A"
  },
  {
    "kode": "26",
    "nama": "Terminal Karya Jaya",
    "tipe": "A"
  },
  {
    "kode": "27",
    "nama": "Terminal Kayuagung",
    "tipe": "A"
  },
  {
    "kode": "28",
    "nama": "Terminal Batu Kuning",
    "tipe": "A"
  },
  {
    "kode": "29",
    "nama": "Terminal Betung",
    "tipe": "A"
  },
  {
    "kode": "30",
    "nama": "Terminal Simpang Priuk",
    "tipe": "A"
  },
  {
    "kode": "31",
    "nama": "Terminal Regional Lahat",
    "tipe": "A"
  },
  {
    "kode": "32",
    "nama": "Terminal Simpang Nangka",
    "tipe": "A"
  },
  {
    "kode": "33",
    "nama": "Terminal Air Sebakul",
    "tipe": "A"
  },
  {
    "kode": "34",
    "nama": "Terminal Rajabasa",
    "tipe": "A"
  },
  {
    "kode": "35",
    "nama": "Terminal Betan Subing",
    "tipe": "A"
  },
  {
    "kode": "36",
    "nama": "Terminal Pakupatan",
    "tipe": "A"
  },
  {
    "kode": "37",
    "nama": "Terminal Labuan",
    "tipe": "A"
  },
  {
    "kode": "38",
    "nama": "Terminal Mandala Lebak",
    "tipe": "A"
  },
  {
    "kode": "39",
    "nama": "Terminal Merak",
    "tipe": "A"
  },
  {
    "kode": "40",
    "nama": "Terminal Poris Plawad",
    "tipe": "A"
  },
  {
    "kode": "41",
    "nama": "Terminal Pondok Cabe",
    "tipe": "A"
  },
  {
    "kode": "42",
    "nama": "Terminal Kampung Rambutan",
    "tipe": "A"
  },
  {
    "kode": "43",
    "nama": "Terminal Kalideres",
    "tipe": "A"
  },
  {
    "kode": "44",
    "nama": "Terminal Blok M",
    "tipe": "B"
  },
  {
    "kode": "45",
    "nama": "Terminal Cililitan",
    "tipe": "B"
  },
  {
    "kode": "46",
    "nama": "Terminal Grogol",
    "tipe": "B"
  },
  {
    "kode": "47",
    "nama": "Terminal Jakarta Kota",
    "tipe": "B"
  },
  {
    "kode": "48",
    "nama": "Terminal Kampung Melayu",
    "tipe": "B"
  },
  {
    "kode": "49",
    "nama": "Terminal Klender",
    "tipe": "B"
  },
  {
    "kode": "50",
    "nama": "Terminal Lebak Bulus",
    "tipe": "B"
  },
  {
    "kode": "51",
    "nama": "Terminal Manggarai",
    "tipe": "B"
  },
  {
    "kode": "52",
    "nama": "Terminal Muara Angke",
    "tipe": "B"
  },
  {
    "kode": "53",
    "nama": "Terminal Pasar Minggu",
    "tipe": "B"
  },
  {
    "kode": "54",
    "nama": "Terminal Pinang Ranti",
    "tipe": "B"
  },
  {
    "kode": "55",
    "nama": "Terminal Pulogadung",
    "tipe": "B"
  },
  {
    "kode": "56",
    "nama": "Terminal Ragunan",
    "tipe": "B"
  },
  {
    "kode": "57",
    "nama": "Terminal Rawamangun",
    "tipe": "B"
  },
  {
    "kode": "58",
    "nama": "Terminal Senen",
    "tipe": "B"
  },
  {
    "kode": "59",
    "nama": "Terminal Tanjung Priok",
    "tipe": "B"
  },
  {
    "kode": "60",
    "nama": "Terminal KH. Ahmad Sanusi",
    "tipe": "A"
  },
  {
    "kode": "61",
    "nama": "Terminal Ciakar",
    "tipe": "A"
  },
  {
    "kode": "62",
    "nama": "Terminal Guntur Melati",
    "tipe": "A"
  },
  {
    "kode": "63",
    "nama": "Terminal Pameungpeuk",
    "tipe": "B"
  },
  {
    "kode": "64",
    "nama": "Terminal Harjamukti",
    "tipe": "A"
  },
  {
    "kode": "65",
    "nama": "Terminal Indihiang",
    "tipe": "A"
  },
  {
    "kode": "66",
    "nama": "Terminal Kuningan",
    "tipe": "A"
  },
  {
    "kode": "67",
    "nama": "Terminal Subang",
    "tipe": "A"
  },
  {
    "kode": "68",
    "nama": "Terminal Banjar",
    "tipe": "A"
  },
  {
    "kode": "69",
    "nama": "Terminal Cikampek",
    "tipe": "A"
  },
  {
    "kode": "70",
    "nama": "Terminal Baranagsiang",
    "tipe": "A"
  },
  {
    "kode": "71",
    "nama": "Terminal Induk Bekasi",
    "tipe": "A"
  },
  {
    "kode": "72",
    "nama": "Terminal Jatiasih",
    "tipe": "A"
  },
  {
    "kode": "73",
    "nama": "Terminal Kalijaya Cikarang",
    "tipe": "A"
  },
  {
    "kode": "74",
    "nama": "Terminal Jatijajar",
    "tipe": "A"
  },
  {
    "kode": "75",
    "nama": "Terminal Cicaheum",
    "tipe": "A"
  },
  {
    "kode": "76",
    "nama": "Terminal Leuwipanjang",
    "tipe": "A"
  },
  {
    "kode": "77",
    "nama": "Terminal ST. Hall",
    "tipe": "B"
  },
  {
    "kode": "78",
    "nama": "Terminal Ciroyom",
    "tipe": "B"
  },
  {
    "kode": "79",
    "nama": "Terminal Ledeng",
    "tipe": "B"
  },
  {
    "kode": "80",
    "nama": "Terminal Palabuhanratu",
    "tipe": "B"
  },
  {
    "kode": "81",
    "nama": "Terminal Leuwiliang",
    "tipe": "B"
  },
  {
    "kode": "82",
    "nama": "Terminal Cileungsi",
    "tipe": "B"
  },
  {
    "kode": "83",
    "nama": "Terminal Singaparna",
    "tipe": "B"
  },
  {
    "kode": "84",
    "nama": "Terminal Ciamis",
    "tipe": "B"
  },
  {
    "kode": "85",
    "nama": "Terminal Pangandaran",
    "tipe": "B"
  },
  {
    "kode": "86",
    "nama": "Terminal Sumber",
    "tipe": "B"
  },
  {
    "kode": "87",
    "nama": "Terminal Losari",
    "tipe": "B"
  },
  {
    "kode": "88",
    "nama": "Terminal Ciledung",
    "tipe": "B"
  },
  {
    "kode": "89",
    "nama": "Terminal Indramayu",
    "tipe": "B"
  },
  {
    "kode": "90",
    "nama": "Terminal Purworejo",
    "tipe": "A"
  },
  {
    "kode": "91",
    "nama": "Terminal Suronegaran",
    "tipe": "B"
  },
  {
    "kode": "92",
    "nama": "Terminal Nampurejo",
    "tipe": "B"
  },
  {
    "kode": "93",
    "nama": "Terminal Cepu",
    "tipe": "A"
  },
  {
    "kode": "94",
    "nama": "Terminal Gagak Rimang",
    "tipe": "B"
  },
  {
    "kode": "95",
    "nama": "Terminal Bangga Bangun Desa",
    "tipe": "A"
  },
  {
    "kode": "96",
    "nama": "Terminal Giri Adipura",
    "tipe": "A"
  },
  {
    "kode": "97",
    "nama": "Terminal Pracimantoro",
    "tipe": "B"
  },
  {
    "kode": "98",
    "nama": "Terminal Baturetno",
    "tipe": "B"
  },
  {
    "kode": "99",
    "nama": "Terminal Jatisrono",
    "tipe": "B"
  },
  {
    "kode": "100",
    "nama": "Terminal Purwantoro",
    "tipe": "B"
  },
  {
    "kode": "101",
    "nama": "Terminal Ir. Soekarno",
    "tipe": "A"
  },
  {
    "kode": "102",
    "nama": "Terminal Kebumen",
    "tipe": "A"
  },
  {
    "kode": "103",
    "nama": "Terminal Mangkang",
    "tipe": "A"
  },
  {
    "kode": "104",
    "nama": "Terminal Pengaron",
    "tipe": "B"
  },
  {
    "kode": "104",
    "nama": "Terminal Pekalongan",
    "tipe": "A"
  },
  {
    "kode": "105",
    "nama": "Terminal Induk Pemalang",
    "tipe": "A"
  },
  {
    "kode": "106",
    "nama": "Terminal Purwokerto",
    "tipe": "A"
  },
  {
    "kode": "107",
    "nama": "Terminal Mendolo",
    "tipe": "A"
  },
  {
    "kode": "108",
    "nama": "Terminal Bawen",
    "tipe": "A"
  },
  {
    "kode": "109",
    "nama": "Terminal Tidar",
    "tipe": "A"
  },
  {
    "kode": "110",
    "nama": "Terminal Tingkir",
    "tipe": "A"
  },
  {
    "kode": "111",
    "nama": "Terminal Tirtonadi",
    "tipe": "A"
  },
  {
    "kode": "112",
    "nama": "Terminal Jati",
    "tipe": "A"
  },
  {
    "kode": "113",
    "nama": "Terminal Bobot Sari",
    "tipe": "A"
  },
  {
    "kode": "114",
    "nama": "Terminal Purbalingga",
    "tipe": "B"
  },
  {
    "kode": "115",
    "nama": "Terminal Demak",
    "tipe": "A"
  },
  {
    "kode": "116",
    "nama": "Terminal Bintoro",
    "tipe": "B"
  },
  {
    "kode": "117",
    "nama": "Terminal Tegal",
    "tipe": "A"
  },
  {
    "kode": "118",
    "nama": "Terminal Purwodadi",
    "tipe": "B"
  },
  {
    "kode": "119",
    "nama": "Terminal Sunggingan",
    "tipe": "B"
  },
  {
    "kode": "120",
    "nama": "Terminal Kartasura",
    "tipe": "B"
  },
  {
    "kode": "121",
    "nama": "Terminal Sukoharjo",
    "tipe": "B"
  },
  {
    "kode": "122",
    "nama": "Terminal Tegalgede",
    "tipe": "B"
  },
  {
    "kode": "123",
    "nama": "Terminal Tawangmangu",
    "tipe": "B"
  },
  {
    "kode": "124",
    "nama": "Terminal Pilangsari",
    "tipe": "B"
  },
  {
    "kode": "125",
    "nama": "Terminal Madureso",
    "tipe": "B"
  },
  {
    "kode": "126",
    "nama": "Terminal Drs. Prayitno Muntilan",
    "tipe": "B"
  },
  {
    "kode": "127",
    "nama": "Terminal Mandiraja",
    "tipe": "B"
  },
  {
    "kode": "128",
    "nama": "Terminal Banjarnegara",
    "tipe": "B"
  },
  {
    "kode": "129",
    "nama": "Terminal Bumiayu",
    "tipe": "B"
  },
  {
    "kode": "130",
    "nama": "Terminal Tanjung",
    "tipe": "B"
  },
  {
    "kode": "131",
    "nama": "Terminal Kajen",
    "tipe": "B"
  },
  {
    "kode": "132",
    "nama": "Terminal Banyuputih",
    "tipe": "B"
  },
  {
    "kode": "133",
    "nama": "Terminal Giwangan",
    "tipe": "A"
  },
  {
    "kode": "134",
    "nama": "Terminal Dhaksinarga",
    "tipe": "A"
  },
  {
    "kode": "135",
    "nama": "Terminal Jombor",
    "tipe": "B"
  },
  {
    "kode": "136",
    "nama": "Terminal Palbapang",
    "tipe": "B"
  },
  {
    "kode": "137",
    "nama": "Terminal Wates",
    "tipe": "B"
  },
  {
    "kode": "138",
    "nama": "Terminal Arjosari",
    "tipe": "A"
  },
  {
    "kode": "139",
    "nama": "Terminal Hamid Rusdi",
    "tipe": "B"
  },
  {
    "kode": "140",
    "nama": "Terminal Landungsari",
    "tipe": "B"
  },
  {
    "kode": "141",
    "nama": "Terminal Arya Wiraraja",
    "tipe": "A"
  },
  {
    "kode": "142",
    "nama": "Terminal Bangkalan",
    "tipe": "A"
  },
  {
    "kode": "143",
    "nama": "Terminal Bangkalan",
    "tipe": "B"
  },
  {
    "kode": "144",
    "nama": "Terminal Bayuangga",
    "tipe": "A"
  },
  {
    "kode": "145",
    "nama": "Terminal Gayatri",
    "tipe": "A"
  },
  {
    "kode": "146",
    "nama": "Terminal Kertonegoro",
    "tipe": "A"
  },
  {
    "kode": "147",
    "nama": "Terminal Pacitan",
    "tipe": "A"
  },
  {
    "kode": "148",
    "nama": "Terminal Ngadirojo",
    "tipe": "B"
  },
  {
    "kode": "149",
    "nama": "Terminal Patria",
    "tipe": "A"
  },
  {
    "kode": "150",
    "nama": "Terminal Purboyo",
    "tipe": "A"
  },
  {
    "kode": "151",
    "nama": "Terminal Selo Aji",
    "tipe": "A"
  },
  {
    "kode": "152",
    "nama": "Terminal Tamanan",
    "tipe": "A"
  },
  {
    "kode": "153",
    "nama": "Terminal Tawangalun",
    "tipe": "A"
  },
  {
    "kode": "154",
    "nama": "Terminal Ambulu",
    "tipe": "B"
  },
  {
    "kode": "155",
    "nama": "Terminal Arjasa",
    "tipe": "B"
  },
  {
    "kode": "156",
    "nama": "Terminal Surodakan",
    "tipe": "A"
  },
  {
    "kode": "157",
    "nama": "Terminal Rajekwesi",
    "tipe": "A"
  },
  {
    "kode": "158",
    "nama": "Terminal Padangan",
    "tipe": "B"
  },
  {
    "kode": "159",
    "nama": "Terminal Temayang",
    "tipe": "B"
  },
  {
    "kode": "160",
    "nama": "Terminal Betek",
    "tipe": "B"
  },
  {
    "kode": "161",
    "nama": "Terminal Pasuruan",
    "tipe": "A"
  },
  {
    "kode": "162",
    "nama": "Terminal Kembang Putih",
    "tipe": "A"
  },
  {
    "kode": "163",
    "nama": "Terminal Sri Tanjung",
    "tipe": "A"
  },
  {
    "kode": "164",
    "nama": "Terminal Brawijaya",
    "tipe": "B"
  },
  {
    "kode": "165",
    "nama": "Terminal Osowilangun",
    "tipe": "A"
  },
  {
    "kode": "166",
    "nama": "Terminal Purabaya",
    "tipe": "A"
  },
  {
    "kode": "167",
    "nama": "Terminal Larangan",
    "tipe": "B"
  },
  {
    "kode": "168",
    "nama": "Terminal Kertajaya",
    "tipe": "B"
  },
  {
    "kode": "169",
    "nama": "Terminal Lamongan",
    "tipe": "B"
  },
  {
    "kode": "170",
    "nama": "Terminal Bunder",
    "tipe": "B"
  },
  {
    "kode": "171",
    "nama": "Terminal Anjuk Ladang",
    "tipe": "B"
  },
  {
    "kode": "172",
    "nama": "Terminal Caruban",
    "tipe": "B"
  },
  {
    "kode": "173",
    "nama": "Terminal Maospati",
    "tipe": "B"
  },
  {
    "kode": "174",
    "nama": "Terminal Magetan",
    "tipe": "B"
  },
  {
    "kode": "175",
    "nama": "Terminal Kesamben",
    "tipe": "B"
  },
  {
    "kode": "176",
    "nama": "Terminal Batu",
    "tipe": "B"
  },
  {
    "kode": "177",
    "nama": "Terminal Untung Suropati",
    "tipe": "B"
  },
  {
    "kode": "178",
    "nama": "Terminal Minak Koncar",
    "tipe": "B"
  },
  {
    "kode": "179",
    "nama": "Terminal Bondowoso",
    "tipe": "B"
  },
  {
    "kode": "180",
    "nama": "Terminal Situbondo",
    "tipe": "B"
  },
  {
    "kode": "181",
    "nama": "Terminal Trunojoyo",
    "tipe": "B"
  },
  {
    "kode": "182",
    "nama": "Terminal Ronggo Sukowati",
    "tipe": "B"
  },
  {
    "kode": "183",
    "nama": "Terminal Mengwi",
    "tipe": "A"
  },
  {
    "kode": "184",
    "nama": "Terminal Mandalika",
    "tipe": "A"
  },
  {
    "kode": "185",
    "nama": "Terminal Sumer Payung",
    "tipe": "A"
  },
  {
    "kode": "186",
    "nama": "Terminal Dara",
    "tipe": "A"
  },
  {
    "kode": "187",
    "nama": "Terminal Kefamenanu",
    "tipe": "A"
  },
  {
    "kode": "188",
    "nama": "Terminal Bimoku",
    "tipe": "A"
  },
  {
    "kode": "189",
    "nama": "Terminal Oebobo",
    "tipe": "B"
  },
  {
    "kode": "190",
    "nama": "Terminal Noelbaki",
    "tipe": "B"
  },
  {
    "kode": "191",
    "nama": "Terminal Haumeni",
    "tipe": "B"
  },
  {
    "kode": "192",
    "nama": "Terminal Fatubenao",
    "tipe": "B"
  },
  {
    "kode": "193",
    "nama": "Terminal Lamawalang",
    "tipe": "B"
  },
  {
    "kode": "194",
    "nama": "Terminal Madawat",
    "tipe": "B"
  },
  {
    "kode": "195",
    "nama": "Terminal Lokarya",
    "tipe": "B"
  },
  {
    "kode": "196",
    "nama": "Terminal Ndao",
    "tipe": "B"
  },
  {
    "kode": "197",
    "nama": "Terminal Reworeke/Rewarangga",
    "tipe": "B"
  },
  {
    "kode": "198",
    "nama": "Terminal Watujaji",
    "tipe": "B"
  },
  {
    "kode": "199",
    "nama": "Terminal Mena",
    "tipe": "B"
  },
  {
    "kode": "200",
    "nama": "Terminal Nggorang",
    "tipe": "B"
  },
  {
    "kode": "201",
    "nama": "Terminal Lambanapu",
    "tipe": "B"
  },
  {
    "kode": "202",
    "nama": "Terminal Waikelo/Radamata",
    "tipe": "B"
  },
  {
    "kode": "203",
    "nama": "Terminal Waikabubak",
    "tipe": "B"
  },
  {
    "kode": "204",
    "nama": "Terminal Sei Ambawang",
    "tipe": "A"
  },
  {
    "kode": "205",
    "nama": "Terminal Singkawang",
    "tipe": "A"
  },
  {
    "kode": "206",
    "nama": "Terminal W.A. Gara",
    "tipe": "A"
  },
  {
    "kode": "207",
    "nama": "Terminal Gambut Barakat",
    "tipe": "A"
  },
  {
    "kode": "208",
    "nama": "Terminal Batu Ampar",
    "tipe": "A"
  },
  {
    "kode": "209",
    "nama": "Terminal Samarinda Seberang",
    "tipe": "A"
  },
  {
    "kode": "210",
    "nama": "Terminal Boroko",
    "tipe": "A"
  },
  {
    "kode": "211",
    "nama": "Terminal Malalayang",
    "tipe": "A"
  },
  {
    "kode": "212",
    "nama": "Terminal Paal 2",
    "tipe": "B"
  },
  {
    "kode": "213",
    "nama": "Terminal Karombasan",
    "tipe": "B"
  },
  {
    "kode": "214",
    "nama": "Terminal Tangkoko",
    "tipe": "A"
  },
  {
    "kode": "215",
    "nama": "Terminal Tondano",
    "tipe": "B"
  },
  {
    "kode": "216",
    "nama": "Terminal Langowan",
    "tipe": "B"
  },
  {
    "kode": "217",
    "nama": "Terminal Tumatenden",
    "tipe": "B"
  },
  {
    "kode": "218",
    "nama": "Terminal Bolaang Mongondow",
    "tipe": "A"
  },
  {
    "kode": "218",
    "nama": "Terminal Isimu",
    "tipe": "A"
  },
  {
    "kode": "217",
    "nama": "Terminal Dungingi",
    "tipe": "A"
  },
  {
    "kode": "216",
    "nama": "Terminal Kasintuwu",
    "tipe": "A"
  },
  {
    "kode": "217",
    "nama": "Terminal Mamboro",
    "tipe": "A"
  },
  {
    "kode": "218",
    "nama": "Terminal Simbuang",
    "tipe": "A"
  },
  {
    "kode": "219",
    "nama": "Terminal Tipalayo",
    "tipe": "A"
  },
  {
    "kode": "220",
    "nama": "Terminal Induk Lumpue",
    "tipe": "A"
  },
  {
    "kode": "221",
    "nama": "Terminal Soreang",
    "tipe": "C"
  },
  {
    "kode": "222",
    "nama": "Terminal Latenri Sessu Pekkae",
    "tipe": "A"
  },
  {
    "kode": "223",
    "nama": "Terminal Mattirowalie",
    "tipe": "C"
  },
  {
    "kode": "224",
    "nama": "Terminal Petta Pongawai",
    "tipe": "A"
  },
  {
    "kode": "225",
    "nama": "Terminal Callacu",
    "tipe": "B"
  },
  {
    "kode": "226",
    "nama": "Terminal Daya",
    "tipe": "A"
  },
  {
    "kode": "227",
    "nama": "Terminal Malengkeri",
    "tipe": "B"
  },
  {
    "kode": "228",
    "nama": "Terminal Maros",
    "tipe": "B"
  },
  {
    "kode": "229",
    "nama": "Terminal Pangkajene",
    "tipe": "B"
  },
  {
    "kode": "230",
    "nama": "Terminal Pinrang",
    "tipe": "B"
  },
  {
    "kode": "231",
    "nama": "Terminal Lao Woi",
    "tipe": "B"
  },
  {
    "kode": "232",
    "nama": "Terminal Soppeng",
    "tipe": "B"
  },
  {
    "kode": "233",
    "nama": "Terminal Luwu",
    "tipe": "B"
  },
  {
    "kode": "234",
    "nama": "Terminal Dangerakko",
    "tipe": "B"
  },
  {
    "kode": "235",
    "nama": "Terminal Tellulimpoe",
    "tipe": "B"
  },
  {
    "kode": "236",
    "nama": "Terminal Karisa",
    "tipe": "B"
  },
  {
    "kode": "237",
    "nama": "Terminal Bantaeng",
    "tipe": "B"
  },
  {
    "kode": "238",
    "nama": "Terminal Cappa Bungaya",
    "tipe": "B"
  },
  {
    "kode": "239",
    "nama": "Terminal Takalar",
    "tipe": "B"
  },
  {
    "kode": "241",
    "nama": "Terminal Puuwatu",
    "tipe": "A"
  },
  {
    "kode": "242",
    "nama": "Terminal Entrop",
    "tipe": "A"
  }
]